<svg xmlns="http://www.w3.org/2000/svg" width="42" height="36" viewBox="0 0 42 36">
    <g fill="none" fill-rule="nonzero" stroke="#5300FF" stroke-width="2">
        <path d="M39.38 7.789c-1.04-1.02-2.295-1.53-3.765-1.53h-4.66l-1.06-2.773c-.264-.666-.746-1.24-1.447-1.723-.7-.483-1.418-.724-2.153-.724h-10.65c-.735 0-1.453.241-2.154.724-.7.483-1.182 1.057-1.445 1.723L10.985 6.26h-4.66c-1.47 0-2.725.51-3.765 1.53S1 10.039 1 11.48v18.272c0 1.442.52 2.672 1.56 3.692s2.295 1.53 3.765 1.53h29.29c1.47 0 2.724-.51 3.764-1.53 1.04-1.02 1.56-2.25 1.56-3.692V11.48c0-1.441-.52-2.671-1.56-3.691zM27.553 27.07c-1.823 1.788-4.018 2.682-6.583 2.682-2.566 0-4.76-.894-6.584-2.682-1.824-1.788-2.736-3.94-2.736-6.454 0-2.516.912-4.667 2.736-6.455 1.823-1.788 4.018-2.682 6.584-2.682 2.565 0 4.76.894 6.583 2.682 1.824 1.788 2.736 3.94 2.736 6.455s-.912 4.666-2.736 6.454z"/>
        <path d="M20.97 14.743c-1.65 0-3.062.575-4.234 1.723-1.171 1.15-1.757 2.532-1.757 4.15 0 1.618.586 3.002 1.757 4.15 1.172 1.15 2.583 1.724 4.234 1.724 1.65 0 3.061-.575 4.233-1.723 1.172-1.15 1.758-2.532 1.758-4.15 0-1.618-.586-3.002-1.758-4.15-1.172-1.15-2.583-1.724-4.233-1.724z"/>
    </g>
</svg>
