<?xml version="1.0" encoding="UTF-8" standalone="no"?>
<svg width="95px" height="65px" viewBox="0 0 95 65" version="1.1" xmlns="http://www.w3.org/2000/svg" xmlns:xlink="http://www.w3.org/1999/xlink">
    <!-- Generator: Sketch 48.2 (47327) - http://www.bohemiancoding.com/sketch -->
    <title>beta</title>
    <desc>Created with Sketch.</desc>
    <defs>
        <filter x="-9.8%" y="-33.5%" width="119.7%" height="146.6%" filterUnits="objectBoundingBox" id="filter-1">
            <feOffset dx="0" dy="0" in="SourceAlpha" result="shadowOffsetOuter1"></feOffset>
            <feGaussianBlur stdDeviation="15" in="shadowOffsetOuter1" result="shadowBlurOuter1"></feGaussianBlur>
            <feColorMatrix values="0 0 0 0 1   0 0 0 0 1   0 0 0 0 1  0 0 0 0.5 0" type="matrix" in="shadowBlurOuter1" result="shadowMatrixOuter1"></feColorMatrix>
            <feMerge>
                <feMergeNode in="shadowMatrixOuter1"></feMergeNode>
                <feMergeNode in="SourceGraphic"></feMergeNode>
            </feMerge>
        </filter>
    </defs>
    <g id="monobeta" stroke="none" stroke-width="1" fill="none" fill-rule="evenodd" transform="translate(-746.000000, 0.000000)">
        <g id="Group-14" filter="url(#filter-1)" transform="translate(135.000000, -288.000000)" fill="#FFFFFF">
            <g id="Group-19" transform="translate(499.000000, 299.000000)">
                <path d="M144.9696,9.89169961 C147.4665,9.89169961 149.2459,11.8145997 149.2459,14.3401997 L149.2459,20.3097999 C149.2459,22.8354 147.4665,24.7583 144.9696,24.7583 C142.444,24.7583 140.6646,22.8354 140.6646,20.3097999 L140.6646,4.63959947 C140.6646,4.49609947 140.7794,4.40999947 140.9229,4.40999947 L141.6978,4.40999947 C141.8413,4.40999947 141.9561,4.49609947 141.9561,4.63959947 L141.9561,11.5849997 C142.6449,10.5517996 143.7355,9.89169961 144.9696,9.89169961 Z M147.9831,20.3097999 L147.9831,14.3401997 C147.9831,12.4746997 146.749,11.1257996 144.9696,11.1257996 C143.1615,11.1257996 141.9561,12.4746997 141.9561,14.3401997 L141.9561,20.3097999 C141.9561,22.1752999 143.1615,23.5242 144.9696,23.5242 C146.749,23.5242 147.9831,22.1752999 147.9831,20.3097999 Z M156.3061,24.7296 C153.6657,24.7296 152.0585,22.8928 152.0585,20.3097999 L152.0585,14.3688997 C152.0585,11.7858997 153.7231,9.92039961 156.3348,9.92039961 C158.889101,9.92039961 160.611101,11.8145997 160.611101,14.2540997 C160.611101,16.6361998 158.946501,18.4155998 156.1339,18.4155998 L153.35,18.4155998 L153.35,20.3097999 C153.35,22.1465999 154.3832,23.5242 156.3061,23.5242 C158.142901,23.5242 159.204801,22.2039999 159.262201,20.3671999 C159.262201,20.2236999 159.377001,20.1375999 159.520501,20.1375999 L160.295401,20.1375999 C160.438901,20.1375999 160.553701,20.2236999 160.553701,20.3671999 C160.467601,22.9215 158.860401,24.7296 156.3061,24.7296 Z M153.35,17.1814998 L156.1339,17.1814998 C158.229001,17.1814998 159.319601,15.9473998 159.319601,14.2540997 C159.319601,12.4746997 158.171601,11.1257996 156.3348,11.1257996 C154.4406,11.1257996 153.35,12.4459997 153.35,14.3688997 L153.35,17.1814998 Z M168.675801,23.3233 C168.819301,23.3233 168.905401,23.4381 168.905401,23.5816 L168.905401,24.3278 C168.905401,24.4713 168.819301,24.5574 168.675801,24.5574 L168.274001,24.5574 C165.777101,24.5574 164.370801,22.8928 164.370801,19.9366999 L164.370801,11.3553997 L162.534001,11.3553997 C162.390501,11.3553997 162.275701,11.2692996 162.275701,11.1257996 L162.275701,10.3795996 C162.275701,10.2360996 162.390501,10.1499996 162.534001,10.1499996 L164.370801,10.1499996 L164.370801,6.36159952 C164.370801,6.21809951 164.485601,6.13199951 164.629101,6.13199951 L165.404001,6.13199951 C165.547501,6.13199951 165.662301,6.21809951 165.662301,6.36159952 L165.662301,10.1499996 L168.360101,10.1499996 C168.503601,10.1499996 168.589701,10.2360996 168.589701,10.3795996 L168.589701,11.1257996 C168.589701,11.2692996 168.503601,11.3553997 168.360101,11.3553997 L165.662301,11.3553997 L165.662301,19.9366999 C165.662301,22.1465999 166.552001,23.3233 168.274001,23.3233 L168.675801,23.3233 Z M175.190701,24.7296 C172.492901,24.7296 170.799601,22.9502 170.799601,20.2810999 C170.799601,17.9563998 172.492901,16.2056998 175.219401,16.2056998 L178.089401,16.2056998 L178.089401,14.3114997 C178.089401,12.3885997 176.998801,11.1257996 175.190701,11.1257996 C173.468701,11.1257996 172.435501,12.2737997 172.320701,13.9096997 C172.292001,14.0818997 172.205901,14.1679997 172.062401,14.1679997 L171.287501,14.1679997 C171.144001,14.1679997 171.029201,14.0531997 171.029201,13.9096997 C171.172701,11.5849997 172.722501,9.89169961 175.190701,9.89169961 C177.745001,9.89169961 179.380901,11.6997997 179.380901,14.3114997 L179.380901,20.2810999 C179.380901,22.8928 177.773701,24.7296 175.190701,24.7296 Z M175.190701,23.5242 C177.027501,23.5242 178.089401,22.2326999 178.089401,20.2810999 L178.089401,17.4110998 L175.219401,17.4110998 C173.210401,17.4110998 172.091101,18.6164998 172.091101,20.2810999 C172.091101,22.2613999 173.210401,23.5242 175.190701,23.5242 Z" id="beta"></path>
            </g>
        </g>
    </g>
</svg>