<?xml version="1.0" encoding="UTF-8" standalone="no"?>
<svg width="24px" height="31px" viewBox="0 0 24 31" version="1.1" xmlns="http://www.w3.org/2000/svg" xmlns:xlink="http://www.w3.org/1999/xlink">
    <!-- Generator: Sketch 48.2 (47327) - http://www.bohemiancoding.com/sketch -->
    <title>wallet_open</title>
    <desc>Created with Sketch.</desc>
    <defs>
        <path d="M0,17.194875 L0,14.625 C0,13.17775 1.15371429,12 2.57142857,12 L9.42857143,12 C10.8462857,12 12,13.17775 12,14.625 L12,17.194875 C10.266,18.3315 8.20971429,19 6,19 C3.79028571,19 1.734,18.3315 0,17.194875 Z" id="path-1"></path>
        <filter x="-75.0%" y="-100.0%" width="250.0%" height="357.1%" filterUnits="objectBoundingBox" id="filter-2">
            <feMorphology radius="2" operator="dilate" in="SourceAlpha" result="shadowSpreadOuter1"></feMorphology>
            <feOffset dx="0" dy="2" in="shadowSpreadOuter1" result="shadowOffsetOuter1"></feOffset>
            <feGaussianBlur stdDeviation="2" in="shadowOffsetOuter1" result="shadowBlurOuter1"></feGaussianBlur>
            <feComposite in="shadowBlurOuter1" in2="SourceAlpha" operator="out" result="shadowBlurOuter1"></feComposite>
            <feColorMatrix values="0 0 0 0 0   0 0 0 0 0   0 0 0 0 0  0 0 0 0.5 0" type="matrix" in="shadowBlurOuter1"></feColorMatrix>
        </filter>
        <path d="M6,10 C3.2425,10 1,7.7575 1,5 C1,2.2425 3.2425,0 6,0 C8.7575,0 11,2.2425 11,5 C11,7.7575 8.7575,10 6,10 Z" id="path-3"></path>
        <filter x="-90.0%" y="-70.0%" width="280.0%" height="280.0%" filterUnits="objectBoundingBox" id="filter-4">
            <feMorphology radius="2" operator="dilate" in="SourceAlpha" result="shadowSpreadOuter1"></feMorphology>
            <feOffset dx="0" dy="2" in="shadowSpreadOuter1" result="shadowOffsetOuter1"></feOffset>
            <feGaussianBlur stdDeviation="2" in="shadowOffsetOuter1" result="shadowBlurOuter1"></feGaussianBlur>
            <feComposite in="shadowBlurOuter1" in2="SourceAlpha" operator="out" result="shadowBlurOuter1"></feComposite>
            <feColorMatrix values="0 0 0 0 0   0 0 0 0 0   0 0 0 0 0  0 0 0 0.5 0" type="matrix" in="shadowBlurOuter1"></feColorMatrix>
        </filter>
    </defs>
    <g id="MonoBetaMobileProfileBalanceExpand" stroke="none" stroke-width="1" fill="none" fill-rule="evenodd" transform="translate(-322.000000, -8.000000)">
        <g id="wallet_open" style="mix-blend-mode: screen;" transform="translate(328.000000, 12.000000)">
            <g id="Path">
                <use fill="black" fill-opacity="1" filter="url(#filter-2)" xlink:href="#path-1"></use>
                <use fill="#FFFFFF" fill-rule="evenodd" xlink:href="#path-1"></use>
                <path stroke="#FFFFFF" stroke-width="2" d="M-1,17.7350705 L-1,14.625 C-1,12.6300277 0.596761835,11 2.57142857,11 L9.42857143,11 C11.4032382,11 13,12.6300277 13,14.625 L13,17.7350705 L12.5482139,18.0312132 C10.6002367,19.3080987 8.34680124,20 6,20 C3.65319876,20 1.3997633,19.3080987 -0.548213884,18.0312132 L-1,17.7350705 Z"></path>
            </g>
            <g id="Path">
                <use fill="black" fill-opacity="1" filter="url(#filter-4)" xlink:href="#path-3"></use>
                <use fill="#FFFFFF" fill-rule="evenodd" xlink:href="#path-3"></use>
                <path stroke="#FFFFFF" stroke-width="2" d="M6,11 C2.69021525,11 0,8.30978475 0,5 C0,1.69021525 2.69021525,-1 6,-1 C9.30978475,-1 12,1.69021525 12,5 C12,8.30978475 9.30978475,11 6,11 Z"></path>
            </g>
        </g>
    </g>
</svg>