<svg xmlns="http://www.w3.org/2000/svg" width="15" height="12" viewBox="0 0 15 12">
    <g fill="none" fill-rule="evenodd" transform="translate(-5 -6)">
        <path fill="#5300FF" fill-rule="nonzero" stroke="#5300FF" d="M6 16.896v-6.184c0-1.913 1.566-3.47 3.491-3.47h5.737c1.926 0 3.492 1.557 3.492 3.47v1.066c0 1.913-1.566 3.47-3.49 3.47H9.571L6 16.895zm3.491-8.88a2.707 2.707 0 0 0-2.713 2.696v4.972l2.623-1.21h5.828a2.707 2.707 0 0 0 2.713-2.696V10.71a2.708 2.708 0 0 0-2.714-2.695H9.491zm-.251 2.637c.409 0 .74.33.74.735a.738.738 0 0 1-.74.736.738.738 0 0 1-.74-.736c0-.406.331-.735.74-.735zm6.23 0c.409 0 .74.33.74.735a.738.738 0 0 1-.74.736.738.738 0 0 1-.74-.736c0-.406.331-.735.74-.735zm-3.11 0c.408 0 .74.33.74.735a.738.738 0 0 1-.74.736.738.738 0 0 1-.74-.736c0-.406.33-.735.74-.735z"/>
        <circle cx="12" cy="12" r="12"/>
    </g>
</svg>
