<svg xmlns="http://www.w3.org/2000/svg" width="40" height="40" viewBox="0 0 40 40">
    <g fill="none" fill-rule="nonzero">
        <circle cx="20" cy="20" r="20" fill="#627EEA"/>
        <g fill="#FFF">
            <path fill-opacity=".602" d="M20.623 5v11.088l9.37 4.187z"/>
            <path d="M20.623 5L11.25 20.275l9.373-4.188z"/>
            <path fill-opacity=".602" d="M20.623 27.46v7.534L30 22.02z"/>
            <path d="M20.623 34.994v-7.535L11.25 22.02z"/>
            <path fill-opacity=".2" d="M20.623 25.716l9.37-5.441-9.37-4.185z"/>
            <path fill-opacity=".602" d="M11.25 20.275l9.373 5.441V16.09z"/>
        </g>
    </g>
</svg>
