<svg xmlns="http://www.w3.org/2000/svg" width="40" height="40" viewBox="0 0 40 40">
    <g fill="none" fill-rule="nonzero">
        <circle cx="20" cy="20" r="20" fill="#67B2E8"/>
        <path fill="#FFF" d="M7.624 14.593a24.902 24.902 0 0 1-.182-2.91 25.16 25.16 0 0 1 5.214-2.234 25.394 25.394 0 0 1 7.864-1.072 32.73 32.73 0 0 1 2.53.178 7.54 7.54 0 0 0-3.85 5.262 7.906 7.906 0 0 0-.13 1.24c-.02.673-.086 1.203-.226 1.698a5.704 5.704 0 0 1-4.194 3.998 5.688 5.688 0 0 1-6.441-3.154 1.852 1.852 0 0 1-.127-.377c-.2-.873-.352-1.749-.458-2.629zm20.862 10.75c-.299.464-.613.918-.944 1.362a7.407 7.407 0 0 0-.916-3.63 7.45 7.45 0 0 0-2.696-2.84l-.113-.07a8.885 8.885 0 0 1-.186-.114c-1.429-.907-2.298-2.177-2.604-3.818a5.674 5.674 0 0 1 4.246-6.553 5.611 5.611 0 0 1 3.06.104c.778.244 1.563.565 2.522 1.014.553.259 1.11.548 1.703.884a25.258 25.258 0 0 1-.568 5.209 25.301 25.301 0 0 1-3.504 8.452zm-3.813 4.613a25.772 25.772 0 0 1-4.67 3.532 19.766 19.766 0 0 1-1.279-.802 25.587 25.587 0 0 1-7.323-7.519 25.324 25.324 0 0 1-1.829-3.434c.245.143.496.271.756.386a7.386 7.386 0 0 0 2.284.6c1.606.154 3.119-.171 4.537-.97a5.8 5.8 0 0 1 2.143-.716 5.676 5.676 0 0 1 6.156 4.027c.42 1.407.297 2.79-.356 4.152-.055.115-.103.21-.215.43l-.056.11a.73.73 0 0 1-.148.204z"/>
    </g>
</svg>
